…
To just return the whole dataframe, set the `see_all` argument to
`TRUE`.

``` r
all_artists <- favorite_artists(rb, see_all=TRUE)

all_artists
#> # A tibble: 26 × 2
#>    artist             num_appearances
#>    <chr>                        <int>
#>  1 Frank Ocean                      8
#>  2 SZA                              5
#>  3 Sampha                           5
#>  4 Anderson .Paak                   4
#>  5 Daniel Caesar                    3
#>  6 Giveon                           3
#>  7 Kendrick Lamar                   3
#>  8 Mac Miller                       3
#>  9 Tyler, The Creator               3
#> 10 Childish Gambino                 2
#> # ℹ 16 more rows
```
